{
  "app.getvega": {},
  "asia.coins.mobile": {},
  "btc.org.freewallet.app": {},
  "co.bitx.android.wallet": {},
  "co.busha.android": {},
  "co.edgesecure.app": {},
  "co.hodlwallet": {},
  "co.mona.android": {},
  "co.nayuta.wallet": {},
  "cobo.wallet": {},
  "com.airbitz": {},
  "com.badgermobile": {},
  "com.bcoiner.webviewapp": {},
  "com.bitcoin.merchant.app": {},
  "com.bitcoin.mwallet": {},
  "com.bitcoin.wallet.btc": {},
  "com.bitlish.bitlish": {},
  "com.bitpay.wallet": {},
  "com.bitpie": {},
  "com.bitrefill.app": {},
  "com.blockfolio.blockfolio": {},
  "com.breadwallet": {},
  "com.breez.client": {},
  "com.cmcm.blockchain.bitcoin.ethereum.safewallet": {},
  "com.codit.cryptowatchwallet": {},
  "com.coinbase.android": {},
  "com.coinninja.coinkeeper": {},
  "com.coinomi.wallet": {},
  "com.coinspace.app": {},
  "com.crypto.multiwallet": {},
  "com.cryptonator.android": {},
  "com.dowallet": {},
  "com.ebcecosystem.wallets": {},
  "com.enjin.mobile.wallet": {},
  "com.fitbobcat.satoshi": {},
  "com.freaks.app.handcash": {},
  "com.greenaddress.greenbits_android_wallet": {},
  "com.liberty.jaxx": {},
  "com.lightning.walletapp": {},
  "com.livingroomofsatoshi.wallet": {},
  "com.lumiwallet.android": {},
  "com.luneswallet": {},
  "com.maxonrow.wallet": {},
  "com.microbitcoin": {},
  "com.mycelium.wallet": {},
  "com.onebit.app": {},
  "com.paxful.wallet": {},
  "com.paytomat": {},
  "com.paywaywallet": {},
  "com.plutus.wallet": {},
  "com.polehin.android": {},
  "com.ripio.android": {},
  "com.samourai.wallet": {},
  "com.shango": {},
  "com.spark.wallet": {},
  "com.trusteewallet": {},
  "com.wallet.crypto.trustapp": {},
  "com.xapo": {},
  "com.zeusln.zeus": {},
  "de.fuf.bitbucks": {},
  "de.schildbach.wallet": {},
  "engineering.lightning.LightningMainnet": {},
  "exodusmovement.exodus": {},
  "fr.acinq.eclair.wallet.mainnet2": {},
  "fr.acinq.phoenix.mainnet": {},
  "ilcbtc.wallet": {},
  "io.atomicwallet": {},
  "io.bluewallet.bluewallet": {},
  "io.eidoo.wallet.prodnet": {},
  "io.infinito.wallet": {},
  "io.muun.apollo": {},
  "io.totalcoin.wallet": {},
  "it.airgap.wallet": {},
  "lt.spectrofinance.spectrocoin.android.wallet": {},
  "mw.org.freewallet.app": {},
  "net.coinpayments.coinpaymentsapp": {},
  "org.electroncash.wallet": {},
  "org.electrum.electrum": {},
  "org.freewallet.lite.android": {},
  "org.toshi": {},
  "piuk.blockchain.android": {},
  "pro.bitapp.android": {},
  "tech.insense.sensewalet": {},
  "zapsolutions.zap": {}
}